ApiClientTest.class
TestUtils$WebhookStatus.class
TestUtils$InvoiceStatus.class
TestUtils$RateType.class
TestUtils$ProductClassificationReference.class
TestUtils$AccountType.class
TestUtils$EventDataType.class
TestUtils.class
